id,name,model_id:id,group_id:id,perm_read,perm_write,perm_create,perm_unlink
access_account_asset_marcas,access_account_asset_marcas,model_account_asset_marcas,account.group_account_invoice,1,1,1,1
access_account_asset_caracteristicas,access_account_asset_caracteristicas,model_account_asset_caracteristicas,account.group_account_invoice,1,1,1,1
access_account_asset_caracteristicas_line,access_account_asset_caracteristicas_line,model_account_asset_caracteristicas_line,account.group_account_invoice,1,1,1,1
access_educational_ubicaciones,access_educational_ubicaciones,model_educational_ubicaciones,account.group_account_invoice,1,1,1,1
access_educational_departamentos,access_educational_departamentos,model_educational_departamentos,account.group_account_invoice,1,1,1,1
